module gitlab.com/rtemb/helm-example

go 1.14

require (
	github.com/kelseyhightower/envconfig v1.4.0
	github.com/kr/pretty v0.2.0 // indirect
	github.com/pkg/errors v0.9.1
	github.com/sirupsen/logrus v1.6.0
	github.com/stretchr/testify v1.5.1 // indirect
	gopkg.in/check.v1 v1.0.0-20190902080502-41f04d3bba15 // indirect
	gopkg.in/yaml.v2 v2.2.8 // indirect
)
